Intro to the tidyverse and dplyr
…
---
# The Pipe

What do you think the following will do?

```r
penguins %>%
  filter(species == "Adelie") %>%
  arrange(body_mass_g)
```

```
## # A tibble: 152 x 8
##    species island    bill_length_mm bill_depth_mm flipper_length_mm body_mass_g
##    <fct>   <fct>              <dbl>         <dbl>             <int>       <int>
##  1 Adelie  Biscoe              36.5          16.6               181        2850
##  2 Adelie  Biscoe              36.4          17.1               184        2850
##  3 Adelie  Biscoe              34.5          18.1               187        2900
##  4 Adelie  Dream               33.1          16.1               178        2900
##  5 Adelie  Torgersen           38.6          17                 188        2900
##  6 Adelie  Biscoe              37.9          18.6               193        2925
##  7 Adelie  Dream               37.5          18.9               179        2975
##  8 Adelie  Dream               37            16.9               185        3000
##  9 Adelie  Dream               37.3          16.8               192        3000
## 10 Adelie  Torgersen           35.9          16.6               190        3050
## # ... with 142 more rows, and 2 more variables: sex <fct>, year <int>
```
…
---
# Ordering

Verb: `arrange()`

We **arrange** the dataset in order of a particular variable.

```r
penguins %>% 
  arrange(body_mass_g)
```

```
## # A tibble: 333 x 9
##    species   island    bill_length_mm bill_depth_mm flipper_length_~ body_mass_g
##    <fct>     <fct>              <dbl>         <dbl>            <int>       <int>
##  1 Chinstrap Dream               46.9          16.6              192        2700
##  2 Adelie    Biscoe              36.5          16.6              181        2850
##  3 Adelie    Biscoe              36.4          17.1              184        2850
##  4 Adelie    Biscoe              34.5          18.1              187        2900
##  5 Adelie    Dream               33.1          16.1              178        2900
##  6 Adelie    Torgersen           38.6          17                188        2900
##  7 Chinstrap Dream               43.2          16.6              187        2900
##  8 Adelie    Biscoe              37.9          18.6              193        2925
##  9 Adelie    Dream               37            16.9              185        3000
## 10 Adelie    Dream               37.3          16.8              192        3000
## # ... with 323 more rows, and 3 more variables: sex <fct>, year <int>,
## #   bill_size <dbl>
```
…
# Selecting

Verb: `select()`

We **select** which variables we would like to remain in the dataset.

```r
penguins %>%
  select(species, body_mass_g) %>%
  arrange(body_mass_g)
```

```
## # A tibble: 333 x 2
##    species   body_mass_g
##    <fct>           <int>
##  1 Chinstrap        2700
##  2 Adelie           2850
##  3 Adelie           2850
##  4 Adelie           2900
##  5 Adelie           2900
##  6 Adelie           2900
##  7 Chinstrap        2900
##  8 Adelie           2925
##  9 Adelie           3000
## 10 Adelie           3000
## # ... with 323 more rows
```
…
