Pivoting and Joining Datasets
…
## Pivoting

```r
cereals_longer <- cereals %>%
  select(name, mfr, protein, sugars) %>%
  pivot_longer(protein:sugars,
               names_to = "Nutrient",
               values_to = "Amount")

cereals_longer
```

```
## # A tibble: 154 x 4
##    name                      mfr   Nutrient Amount
##    <chr>                     <chr> <chr>     <dbl>
##  1 100% Bran                 N     protein       4
##  2 100% Bran                 N     sugars        6
##  3 100% Natural Bran         Q     protein       3
##  4 100% Natural Bran         Q     sugars        8
##  5 All-Bran                  K     protein       4
##  6 All-Bran                  K     sugars        5
##  7 All-Bran with Extra Fiber K     protein       4
##  8 All-Bran with Extra Fiber K     sugars        0
##  9 Almond Delight            R     protein       2
## 10 Almond Delight            R     sugars        8
## # ... with 144 more rows
```
…
